EESchema Schematic File Version 4
EELAYER 30 0
EELAYER END
$Descr A4 11693 8268
encoding utf-8
Sheet 1 1
Title ""
Date ""
Rev ""
Comp ""
Comment1 ""
Comment2 ""
Comment3 ""
Comment4 ""
$EndDescr
$Comp
L Connector:Conn_01x02_Female J1
U 1 1 5DA0694B
P 1100 1575
F 0 "J1" H 992 1250 50  0000 C CNN
F 1 "CONN_BAT" H 992 1341 50  0000 C CNN
F 2 "" H 1100 1575 50  0001 C CNN
F 3 "~" H 1100 1575 50  0001 C CNN
	1    1100 1575
	-1   0    0    1   
$EndComp
Text GLabel 1500 1575 2    50   Input ~ 0
VBAT
$Comp
L power:GND #PWR0101
U 1 1 5DA079A8
P 1500 1475
F 0 "#PWR0101" H 1500 1225 50  0001 C CNN
F 1 "GND" V 1505 1347 50  0000 R CNN
F 2 "" H 1500 1475 50  0001 C CNN
F 3 "" H 1500 1475 50  0001 C CNN
	1    1500 1475
	0    -1   -1   0   
$EndComp
Wire Wire Line
	1500 1475 1300 1475
$Comp
L Device:C C1
U 1 1 5DA08C4E
P 1375 1925
F 0 "C1" H 1490 1971 50  0000 L CNN
F 1 "C" H 1490 1880 50  0000 L CNN
F 2 "Capacitor_SMD:C_0603_1608Metric" H 1413 1775 50  0001 C CNN
F 3 "~" H 1375 1925 50  0001 C CNN
	1    1375 1925
	1    0    0    -1  
$EndComp
Wire Wire Line
	1375 1775 1375 1575
Wire Wire Line
	1300 1575 1375 1575
Connection ~ 1375 1575
Wire Wire Line
	1375 1575 1500 1575
$Comp
L power:GND #PWR0102
U 1 1 5DA09266
P 1375 2250
F 0 "#PWR0102" H 1375 2000 50  0001 C CNN
F 1 "GND" H 1380 2077 50  0000 C CNN
F 2 "" H 1375 2250 50  0001 C CNN
F 3 "" H 1375 2250 50  0001 C CNN
	1    1375 2250
	1    0    0    -1  
$EndComp
Wire Wire Line
	1375 2250 1375 2075
$Comp
L Device:Antenna_Chip AE1
U 1 1 5DA0A55A
P 7850 1650
F 0 "AE1" H 8030 1777 50  0000 L CNN
F 1 "Antenna_Chip" H 8030 1686 50  0000 L CNN
F 2 "" H 7750 1825 50  0001 C CNN
F 3 "~" H 7750 1825 50  0001 C CNN
	1    7850 1650
	1    0    0    -1  
$EndComp
$Comp
L Device:C C19
U 1 1 5DA0DE4B
P 10450 3825
F 0 "C19" H 10565 3871 50  0000 L CNN
F 1 "100n" H 10565 3780 50  0000 L CNN
F 2 "Capacitor_SMD:C_0603_1608Metric" H 10488 3675 50  0001 C CNN
F 3 "~" H 10450 3825 50  0001 C CNN
	1    10450 3825
	1    0    0    -1  
$EndComp
Wire Wire Line
	8050 3475 8200 3475
$Comp
L Device:C C17
U 1 1 5DA0F3E8
P 9600 3825
F 0 "C17" H 9715 3871 50  0000 L CNN
F 1 "0" H 9715 3780 50  0000 L CNN
F 2 "Capacitor_SMD:C_0603_1608Metric" H 9638 3675 50  0001 C CNN
F 3 "~" H 9600 3825 50  0001 C CNN
	1    9600 3825
	1    0    0    -1  
$EndComp
Wire Wire Line
	9275 3175 9275 3675
$Comp
L power:GND #PWR0103
U 1 1 5DA0FD1B
P 5875 3750
F 0 "#PWR0103" H 5875 3500 50  0001 C CNN
F 1 "GND" H 5880 3577 50  0000 C CNN
F 2 "" H 5875 3750 50  0001 C CNN
F 3 "" H 5875 3750 50  0001 C CNN
	1    5875 3750
	1    0    0    -1  
$EndComp
Wire Wire Line
	6050 3475 5875 3475
Wire Wire Line
	5875 3475 5875 3750
$Comp
L Device:C C16
U 1 1 5DA15272
P 9275 3825
F 0 "C16" H 9160 3779 50  0000 R CNN
F 1 "100p" H 9475 3925 50  0000 R CNN
F 2 "Capacitor_SMD:C_0603_1608Metric" H 9313 3675 50  0001 C CNN
F 3 "~" H 9275 3825 50  0001 C CNN
	1    9275 3825
	-1   0    0    1   
$EndComp
Wire Wire Line
	9600 3075 9600 3675
Wire Wire Line
	10450 3475 10450 3675
$Comp
L Device:L L2
U 1 1 5DA18EB9
P 8150 4100
F 0 "L2" H 8202 4146 50  0000 L CNN
F 1 "10u" H 8202 4055 50  0000 L CNN
F 2 "Inductor_SMD:L_0603_1608Metric" H 8150 4100 50  0001 C CNN
F 3 "~" H 8150 4100 50  0001 C CNN
	1    8150 4100
	1    0    0    -1  
$EndComp
Wire Wire Line
	8050 3675 8150 3675
Wire Wire Line
	8150 3675 8150 3950
Wire Wire Line
	8050 3075 9600 3075
Wire Wire Line
	8050 3175 9275 3175
$Comp
L Device:L L3
U 1 1 5DA1C22D
P 8150 4500
F 0 "L3" H 8202 4546 50  0000 L CNN
F 1 "15u" H 8202 4455 50  0000 L CNN
F 2 "Inductor_SMD:L_0603_1608Metric" H 8150 4500 50  0001 C CNN
F 3 "~" H 8150 4500 50  0001 C CNN
	1    8150 4500
	1    0    0    -1  
$EndComp
Wire Wire Line
	8150 4250 8150 4350
$Comp
L MCU_Nordic:nRF52810-QCxx U3
U 1 1 5DA05040
P 7050 3475
F 0 "U3" V 6375 2550 50  0000 R CNN
F 1 "nRF52810-QCxx" V 6275 2550 50  0000 R CNN
F 2 "Package_DFN_QFN:QFN-32-1EP_5x5mm_P0.5mm_EP3.6x3.6mm" H 7050 2125 50  0001 C CNN
F 3 "http://infocenter.nordicsemi.com/pdf/nRF52810_PS_v1.1.pdf" H 6550 3675 50  0001 C CNN
	1    7050 3475
	0    1    1    0   
$EndComp
Wire Wire Line
	8050 3275 8725 3275
Wire Wire Line
	8725 3275 8725 4750
Wire Wire Line
	8725 4750 8150 4750
Wire Wire Line
	8150 4750 8150 4650
$Comp
L Device:C C13
U 1 1 5DA1DBB7
P 8150 5025
F 0 "C13" H 8265 5071 50  0000 L CNN
F 1 "1u" H 8265 4980 50  0000 L CNN
F 2 "Capacitor_SMD:C_0603_1608Metric" H 8188 4875 50  0001 C CNN
F 3 "~" H 8150 5025 50  0001 C CNN
	1    8150 5025
	1    0    0    -1  
$EndComp
$Comp
L Device:C C15
U 1 1 5DA1E635
P 8725 5025
F 0 "C15" H 8840 5071 50  0000 L CNN
F 1 "0" H 8840 4980 50  0000 L CNN
F 2 "Capacitor_SMD:C_0603_1608Metric" H 8763 4875 50  0001 C CNN
F 3 "~" H 8725 5025 50  0001 C CNN
	1    8725 5025
	1    0    0    -1  
$EndComp
Wire Wire Line
	8725 4750 8725 4875
Connection ~ 8725 4750
Wire Wire Line
	8150 4750 8150 4875
Connection ~ 8150 4750
Wire Wire Line
	8150 5175 8150 5275
Wire Wire Line
	8150 5275 8725 5275
Wire Wire Line
	8725 5275 8725 5175
$Comp
L power:GND #PWR0104
U 1 1 5DA1F62A
P 8150 5400
F 0 "#PWR0104" H 8150 5150 50  0001 C CNN
F 1 "GND" H 8155 5227 50  0000 C CNN
F 2 "" H 8150 5400 50  0001 C CNN
F 3 "" H 8150 5400 50  0001 C CNN
	1    8150 5400
	1    0    0    -1  
$EndComp
Wire Wire Line
	8150 5400 8150 5275
Connection ~ 8150 5275
$Comp
L power:GND #PWR0105
U 1 1 5DA20640
P 10450 4100
F 0 "#PWR0105" H 10450 3850 50  0001 C CNN
F 1 "GND" H 10455 3927 50  0000 C CNN
F 2 "" H 10450 4100 50  0001 C CNN
F 3 "" H 10450 4100 50  0001 C CNN
	1    10450 4100
	1    0    0    -1  
$EndComp
Wire Wire Line
	10450 4100 10450 3975
Wire Wire Line
	9275 4100 9275 3975
$Comp
L power:GND #PWR0106
U 1 1 5DA237B3
P 9600 4300
F 0 "#PWR0106" H 9600 4050 50  0001 C CNN
F 1 "GND" H 9605 4127 50  0000 C CNN
F 2 "" H 9600 4300 50  0001 C CNN
F 3 "" H 9600 4300 50  0001 C CNN
	1    9600 4300
	1    0    0    -1  
$EndComp
Wire Wire Line
	9600 4100 9600 3975
$Comp
L Device:C C18
U 1 1 5DA2638F
P 10050 3825
F 0 "C18" H 10165 3871 50  0000 L CNN
F 1 "100n" H 10165 3780 50  0000 L CNN
F 2 "Capacitor_SMD:C_0603_1608Metric" H 10088 3675 50  0001 C CNN
F 3 "~" H 10050 3825 50  0001 C CNN
	1    10050 3825
	1    0    0    -1  
$EndComp
Wire Wire Line
	10050 4100 10050 3975
Wire Wire Line
	10050 2975 10050 3675
Wire Wire Line
	8050 2975 10050 2975
Wire Wire Line
	9275 4100 9600 4100
Connection ~ 9600 4100
Wire Wire Line
	9600 4100 10050 4100
Wire Wire Line
	9600 4100 9600 4300
$Comp
L Device:Crystal Y1
U 1 1 5DA31D26
P 7050 2225
F 0 "Y1" H 7050 2493 50  0000 C CNN
F 1 "32kHz" H 7050 2402 50  0000 C CNN
F 2 "Crystal:Crystal_SMD_EuroQuartz_EQ161-2Pin_3.2x1.5mm" H 7050 2225 50  0001 C CNN
F 3 "~" H 7050 2225 50  0001 C CNN
	1    7050 2225
	1    0    0    -1  
$EndComp
Wire Wire Line
	6850 2575 6850 2225
Wire Wire Line
	6850 2225 6900 2225
Wire Wire Line
	7200 2225 7250 2225
Wire Wire Line
	7250 2225 7250 2575
$Comp
L Device:C C10
U 1 1 5DA3376C
P 7250 1775
F 0 "C10" H 7365 1821 50  0000 L CNN
F 1 "12p" H 7365 1730 50  0000 L CNN
F 2 "Capacitor_SMD:C_0603_1608Metric" H 7288 1625 50  0001 C CNN
F 3 "~" H 7250 1775 50  0001 C CNN
	1    7250 1775
	1    0    0    -1  
$EndComp
$Comp
L Device:C C9
U 1 1 5DA339B6
P 6850 1775
F 0 "C9" H 6965 1821 50  0000 L CNN
F 1 "12p" H 6965 1730 50  0000 L CNN
F 2 "Capacitor_SMD:C_0603_1608Metric" H 6888 1625 50  0001 C CNN
F 3 "~" H 6850 1775 50  0001 C CNN
	1    6850 1775
	1    0    0    -1  
$EndComp
Wire Wire Line
	6850 2225 6850 1925
Connection ~ 6850 2225
Wire Wire Line
	7250 2225 7250 1925
Connection ~ 7250 2225
Wire Wire Line
	7250 1625 7250 1400
Wire Wire Line
	7250 1400 6850 1400
Wire Wire Line
	6850 1400 6850 1625
$Comp
L power:GND #PWR0107
U 1 1 5DA35AE7
P 6575 1650
F 0 "#PWR0107" H 6575 1400 50  0001 C CNN
F 1 "GND" H 6580 1477 50  0000 C CNN
F 2 "" H 6575 1650 50  0001 C CNN
F 3 "" H 6575 1650 50  0001 C CNN
	1    6575 1650
	1    0    0    -1  
$EndComp
Wire Wire Line
	6575 1650 6575 1400
Wire Wire Line
	6575 1400 6850 1400
Connection ~ 6850 1400
$Comp
L Device:Crystal Y2
U 1 1 5DA38674
P 7550 5100
F 0 "Y2" H 7550 4832 50  0000 C CNN
F 1 "32.768kHz" H 7550 4923 50  0000 C CNN
F 2 "Crystal:Crystal_SMD_EuroQuartz_EQ161-2Pin_3.2x1.5mm" H 7550 5100 50  0001 C CNN
F 3 "~" H 7550 5100 50  0001 C CNN
	1    7550 5100
	1    0    0    1   
$EndComp
Wire Wire Line
	7350 4750 7350 5100
Wire Wire Line
	7350 5100 7400 5100
Wire Wire Line
	7700 5100 7750 5100
$Comp
L Device:C C12
U 1 1 5DA38682
P 7750 5550
F 0 "C12" H 7635 5504 50  0000 R CNN
F 1 "12p" H 7635 5595 50  0000 R CNN
F 2 "Capacitor_SMD:C_0603_1608Metric" H 7788 5400 50  0001 C CNN
F 3 "~" H 7750 5550 50  0001 C CNN
	1    7750 5550
	1    0    0    1   
$EndComp
$Comp
L Device:C C11
U 1 1 5DA3868C
P 7350 5550
F 0 "C11" H 7235 5504 50  0000 R CNN
F 1 "12p" H 7235 5595 50  0000 R CNN
F 2 "Capacitor_SMD:C_0603_1608Metric" H 7388 5400 50  0001 C CNN
F 3 "~" H 7350 5550 50  0001 C CNN
	1    7350 5550
	1    0    0    1   
$EndComp
Wire Wire Line
	7350 5100 7350 5400
Connection ~ 7350 5100
Wire Wire Line
	7750 5100 7750 5400
Connection ~ 7750 5100
Wire Wire Line
	7750 5700 7750 5925
Wire Wire Line
	7750 5925 7350 5925
Wire Wire Line
	7350 5925 7350 5700
$Comp
L power:GND #PWR0108
U 1 1 5DA3869D
P 7750 6175
F 0 "#PWR0108" H 7750 5925 50  0001 C CNN
F 1 "GND" H 7755 6002 50  0000 C CNN
F 2 "" H 7750 6175 50  0001 C CNN
F 3 "" H 7750 6175 50  0001 C CNN
	1    7750 6175
	-1   0    0    -1  
$EndComp
Wire Wire Line
	7750 6175 7750 5925
Wire Wire Line
	7350 4750 7650 4750
Wire Wire Line
	7650 4750 7650 4375
Wire Wire Line
	7750 4375 7750 5100
Connection ~ 7750 5925
$Comp
L Device:C C14
U 1 1 5DA6053D
P 8225 2425
F 0 "C14" V 7973 2425 50  0000 C CNN
F 1 "0.8p" V 8064 2425 50  0000 C CNN
F 2 "Capacitor_SMD:C_0603_1608Metric" H 8263 2275 50  0001 C CNN
F 3 "~" H 8225 2425 50  0001 C CNN
	1    8225 2425
	0    1    1    0   
$EndComp
$Comp
L Device:L L1
U 1 1 5DA60AFD
P 7750 2175
F 0 "L1" H 7802 2221 50  0000 L CNN
F 1 "3.9n" H 7802 2130 50  0000 L CNN
F 2 "Inductor_SMD:L_0603_1608Metric" H 7750 2175 50  0001 C CNN
F 3 "~" H 7750 2175 50  0001 C CNN
	1    7750 2175
	1    0    0    -1  
$EndComp
Wire Wire Line
	7750 2025 7750 1750
Wire Wire Line
	7750 2325 7750 2425
Wire Wire Line
	8075 2425 7750 2425
Connection ~ 7750 2425
Wire Wire Line
	7750 2425 7750 2575
$Comp
L power:GND #PWR0109
U 1 1 5DA65E48
P 8550 2550
F 0 "#PWR0109" H 8550 2300 50  0001 C CNN
F 1 "GND" H 8555 2377 50  0000 C CNN
F 2 "" H 8550 2550 50  0001 C CNN
F 3 "" H 8550 2550 50  0001 C CNN
	1    8550 2550
	1    0    0    -1  
$EndComp
Wire Wire Line
	8375 2425 8550 2425
Wire Wire Line
	8550 2425 8550 2550
$Comp
L power:GND #PWR0110
U 1 1 5DA681DE
P 7950 1875
F 0 "#PWR0110" H 7950 1625 50  0001 C CNN
F 1 "GND" H 7955 1702 50  0000 C CNN
F 2 "" H 7950 1875 50  0001 C CNN
F 3 "" H 7950 1875 50  0001 C CNN
	1    7950 1875
	1    0    0    -1  
$EndComp
Wire Wire Line
	7950 1750 7950 1875
$Comp
L power:+3V3 #PWR0111
U 1 1 5DA6BB4C
P 10450 3475
F 0 "#PWR0111" H 10450 3325 50  0001 C CNN
F 1 "+3V3" H 10465 3648 50  0000 C CNN
F 2 "" H 10450 3475 50  0001 C CNN
F 3 "" H 10450 3475 50  0001 C CNN
	1    10450 3475
	1    0    0    -1  
$EndComp
$Comp
L power:+3V3 #PWR0112
U 1 1 5DA76A48
P 8200 3475
F 0 "#PWR0112" H 8200 3325 50  0001 C CNN
F 1 "+3V3" V 8215 3603 50  0000 L CNN
F 2 "" H 8200 3475 50  0001 C CNN
F 3 "" H 8200 3475 50  0001 C CNN
	1    8200 3475
	0    1    1    0   
$EndComp
Text Notes 10500 3625 0    50   ~ 0
VDD\nBypass
$Comp
L power:GND #PWR0113
U 1 1 5DA88FBF
P 5025 4900
F 0 "#PWR0113" H 5025 4650 50  0001 C CNN
F 1 "GND" V 5030 4772 50  0000 R CNN
F 2 "" H 5025 4900 50  0001 C CNN
F 3 "" H 5025 4900 50  0001 C CNN
	1    5025 4900
	0    -1   1    0   
$EndComp
Wire Wire Line
	4850 4900 4950 4900
Wire Wire Line
	4850 5000 4950 5000
Wire Wire Line
	4950 5000 4950 4900
Connection ~ 4950 4900
Wire Wire Line
	4950 4900 5025 4900
$Comp
L power:+3V3 #PWR0114
U 1 1 5DA99D9C
P 5025 5200
F 0 "#PWR0114" H 5025 5050 50  0001 C CNN
F 1 "+3V3" V 5040 5328 50  0000 L CNN
F 2 "" H 5025 5200 50  0001 C CNN
F 3 "" H 5025 5200 50  0001 C CNN
	1    5025 5200
	0    1    1    0   
$EndComp
Wire Wire Line
	4850 5200 4950 5200
Wire Wire Line
	4950 5200 4950 5300
Wire Wire Line
	4950 5300 4850 5300
Connection ~ 4950 5200
Wire Wire Line
	4950 5200 5025 5200
Text GLabel 5025 5100 2    50   Input ~ 0
EXTMOD
Wire Wire Line
	5025 5100 4850 5100
Text GLabel 5025 5400 2    50   Input ~ 0
DATA
Wire Wire Line
	5025 5400 4850 5400
Text GLabel 5025 5500 2    50   Input ~ 0
EXCOMIN
Wire Wire Line
	5025 5500 4850 5500
Text GLabel 5025 5600 2    50   Input ~ 0
SCS
Wire Wire Line
	5025 5600 4850 5600
Text GLabel 5025 5700 2    50   Input ~ 0
SI
Wire Wire Line
	5025 5700 4850 5700
Text GLabel 5025 5800 2    50   Input ~ 0
SCK
Wire Wire Line
	5025 5800 4850 5800
$Comp
L Battery_Management:MCP73811T-420I-OT U1
U 1 1 5DAB340A
P 3275 1100
F 0 "U1" H 3300 1425 50  0000 L CNN
F 1 "MCP73811T-420I-OT" H 3300 1350 50  0000 L CNN
F 2 "Package_TO_SOT_SMD:SOT-23-5" H 3325 850 50  0001 L CNN
F 3 "http://ww1.microchip.com/downloads/en/DeviceDoc/22036b.pdf" H 3025 1350 50  0001 C CNN
	1    3275 1100
	1    0    0    -1  
$EndComp
$Comp
L Regulator_Linear:AP2112K-3.3 U2
U 1 1 5DAB5171
P 3500 3225
F 0 "U2" H 3500 3567 50  0000 C CNN
F 1 "AP2112K-3.3" H 3500 3476 50  0000 C CNN
F 2 "Package_TO_SOT_SMD:SOT-23-5" H 3500 3550 50  0001 C CNN
F 3 "https://www.diodes.com/assets/Datasheets/AP2112.pdf" H 3500 3325 50  0001 C CNN
	1    3500 3225
	1    0    0    -1  
$EndComp
$Comp
L power:+3V3 #PWR0115
U 1 1 5DAB6C49
P 4000 3125
F 0 "#PWR0115" H 4000 2975 50  0001 C CNN
F 1 "+3V3" V 4015 3253 50  0000 L CNN
F 2 "" H 4000 3125 50  0001 C CNN
F 3 "" H 4000 3125 50  0001 C CNN
	1    4000 3125
	0    1    1    0   
$EndComp
Text GLabel 4025 1000 2    50   Input ~ 0
VBAT
$Comp
L Device:Q_PMOS_DGS Q1
U 1 1 5DAC711B
P 1475 3075
F 0 "Q1" H 1681 3029 50  0000 L CNN
F 1 "Q_PMOS_DGS" H 1681 3120 50  0000 L CNN
F 2 "Package_TO_SOT_SMD:SOT-23" H 1675 3175 50  0001 C CNN
F 3 "~" H 1475 3075 50  0001 C CNN
	1    1475 3075
	1    0    0    1   
$EndComp
Wire Wire Line
	2725 675  2800 675 
Wire Wire Line
	3275 675  3275 800 
Wire Wire Line
	2800 675  2800 1000
Wire Wire Line
	2800 1000 2875 1000
Connection ~ 2800 675 
Wire Wire Line
	2800 675  3275 675 
Wire Wire Line
	2800 1000 2800 1200
Wire Wire Line
	2800 1200 2875 1200
Connection ~ 2800 1000
$Comp
L Device:C C6
U 1 1 5DAF1B3B
P 2800 1575
F 0 "C6" H 2915 1621 50  0000 L CNN
F 1 "C" H 2915 1530 50  0000 L CNN
F 2 "Capacitor_SMD:C_0603_1608Metric" H 2838 1425 50  0001 C CNN
F 3 "~" H 2800 1575 50  0001 C CNN
	1    2800 1575
	1    0    0    1   
$EndComp
Wire Wire Line
	2800 1200 2800 1425
Connection ~ 2800 1200
Wire Wire Line
	3675 1000 3800 1000
$Comp
L Device:C C7
U 1 1 5DAFCDA2
P 3800 1375
F 0 "C7" H 3915 1421 50  0000 L CNN
F 1 "C" H 3915 1330 50  0000 L CNN
F 2 "Capacitor_SMD:C_0603_1608Metric" H 3838 1225 50  0001 C CNN
F 3 "~" H 3800 1375 50  0001 C CNN
	1    3800 1375
	1    0    0    1   
$EndComp
Wire Wire Line
	3800 1000 3800 1225
Connection ~ 3800 1000
Wire Wire Line
	3800 1000 4025 1000
Wire Wire Line
	3800 1525 3800 1925
Wire Wire Line
	3800 1925 3275 1925
Wire Wire Line
	2800 1925 2800 1725
Wire Wire Line
	3275 1400 3275 1925
Connection ~ 3275 1925
Wire Wire Line
	3275 1925 2800 1925
$Comp
L power:GND #PWR0116
U 1 1 5DB0AB62
P 3275 2200
F 0 "#PWR0116" H 3275 1950 50  0001 C CNN
F 1 "GND" H 3280 2027 50  0000 C CNN
F 2 "" H 3275 2200 50  0001 C CNN
F 3 "" H 3275 2200 50  0001 C CNN
	1    3275 2200
	1    0    0    -1  
$EndComp
Wire Wire Line
	3275 1925 3275 2200
Text GLabel 1350 2775 0    50   Input ~ 0
VBAT
Wire Wire Line
	1575 2775 1350 2775
Wire Wire Line
	1575 2775 1575 2875
Text GLabel 1750 3375 2    50   Input ~ 0
VIN
Wire Wire Line
	1750 3375 1575 3375
Wire Wire Line
	1575 3375 1575 3275
$Comp
L Connector:Conn_01x02_Female J2
U 1 1 5DB3C7B6
P 1125 850
F 0 "J2" H 1175 850 50  0000 C CNN
F 1 "CONN_CHRG" H 1000 950 50  0000 C CNN
F 2 "" H 1125 850 50  0001 C CNN
F 3 "~" H 1125 850 50  0001 C CNN
	1    1125 850 
	-1   0    0    -1  
$EndComp
Text GLabel 1500 850  2    50   Input ~ 0
VBUS
Wire Wire Line
	1500 850  1325 850 
$Comp
L power:GND #PWR0117
U 1 1 5DB4AD08
P 1500 950
F 0 "#PWR0117" H 1500 700 50  0001 C CNN
F 1 "GND" V 1505 822 50  0000 R CNN
F 2 "" H 1500 950 50  0001 C CNN
F 3 "" H 1500 950 50  0001 C CNN
	1    1500 950 
	0    -1   1    0   
$EndComp
Wire Wire Line
	1500 950  1325 950 
$Comp
L Device:D D1
U 1 1 5DB633F6
P 1275 3375
F 0 "D1" H 1275 3159 50  0000 C CNN
F 1 "D" H 1275 3250 50  0000 C CNN
F 2 "Diode_SMD:D_0603_1608Metric" H 1275 3375 50  0001 C CNN
F 3 "~" H 1275 3375 50  0001 C CNN
	1    1275 3375
	-1   0    0    1   
$EndComp
Wire Wire Line
	1425 3375 1575 3375
Connection ~ 1575 3375
Wire Wire Line
	1125 3375 1025 3375
Wire Wire Line
	1025 3375 1025 3075
Wire Wire Line
	1025 3075 1275 3075
Text GLabel 2650 3125 0    50   Input ~ 0
VIN
Wire Wire Line
	2650 3125 2725 3125
$Comp
L Device:R R7
U 1 1 5DB7F45E
P 2950 3225
F 0 "R7" V 2950 3225 50  0000 C CNN
F 1 "R" V 2850 3300 50  0000 C CNN
F 2 "Resistor_SMD:R_0603_1608Metric" V 2880 3225 50  0001 C CNN
F 3 "~" H 2950 3225 50  0001 C CNN
	1    2950 3225
	0    -1   -1   0   
$EndComp
Wire Wire Line
	3100 3225 3200 3225
Wire Wire Line
	2725 3225 2725 3125
Connection ~ 2725 3125
Wire Wire Line
	2725 3125 3200 3125
Wire Wire Line
	2725 3225 2800 3225
$Comp
L power:GND #PWR0118
U 1 1 5DB8DCD4
P 3500 3625
F 0 "#PWR0118" H 3500 3375 50  0001 C CNN
F 1 "GND" H 3505 3452 50  0000 C CNN
F 2 "" H 3500 3625 50  0001 C CNN
F 3 "" H 3500 3625 50  0001 C CNN
	1    3500 3625
	1    0    0    -1  
$EndComp
Wire Wire Line
	3500 3625 3500 3525
Connection ~ 1025 3075
Wire Wire Line
	825  3075 1025 3075
Text GLabel 825  3075 0    50   Input ~ 0
VBUS
Text GLabel 2725 675  0    50   Input ~ 0
VBUS
Wire Notes Line
	4350 550  4350 4100
Wire Notes Line
	525  4100 525  550 
Wire Notes Line
	525  4100 4350 4100
Wire Notes Line
	525  550  4350 550 
Wire Notes Line
	2350 550  2350 4100
Wire Notes Line
	4350 2550 525  2550
$Comp
L Device:C C2
U 1 1 5DCE4822
P 1575 3600
F 0 "C2" H 1690 3646 50  0000 L CNN
F 1 "C" H 1690 3555 50  0000 L CNN
F 2 "Capacitor_SMD:C_0603_1608Metric" H 1613 3450 50  0001 C CNN
F 3 "~" H 1575 3600 50  0001 C CNN
	1    1575 3600
	1    0    0    -1  
$EndComp
$Comp
L power:GND #PWR0119
U 1 1 5DCEF207
P 1575 3825
F 0 "#PWR0119" H 1575 3575 50  0001 C CNN
F 1 "GND" H 1580 3652 50  0000 C CNN
F 2 "" H 1575 3825 50  0001 C CNN
F 3 "" H 1575 3825 50  0001 C CNN
	1    1575 3825
	1    0    0    -1  
$EndComp
Wire Wire Line
	1575 3750 1575 3825
Wire Wire Line
	1575 3375 1575 3450
Wire Wire Line
	3800 3125 3875 3125
$Comp
L Device:C C8
U 1 1 5DD0AD8C
P 3875 3400
F 0 "C8" H 3990 3446 50  0000 L CNN
F 1 "C" H 3990 3355 50  0000 L CNN
F 2 "Capacitor_SMD:C_0603_1608Metric" H 3913 3250 50  0001 C CNN
F 3 "~" H 3875 3400 50  0001 C CNN
	1    3875 3400
	1    0    0    -1  
$EndComp
$Comp
L power:GND #PWR0120
U 1 1 5DD0AD96
P 3875 3625
F 0 "#PWR0120" H 3875 3375 50  0001 C CNN
F 1 "GND" H 3880 3452 50  0000 C CNN
F 2 "" H 3875 3625 50  0001 C CNN
F 3 "" H 3875 3625 50  0001 C CNN
	1    3875 3625
	1    0    0    -1  
$EndComp
Wire Wire Line
	3875 3550 3875 3625
Wire Wire Line
	3875 3125 3875 3250
Connection ~ 3875 3125
Wire Wire Line
	3875 3125 4000 3125
Wire Wire Line
	5050 6875 4850 6875
Text GLabel 5050 6875 2    50   Input ~ 0
VBUS
$Comp
L power:GND #PWR0121
U 1 1 5DD63821
P 5050 6575
F 0 "#PWR0121" H 5050 6325 50  0001 C CNN
F 1 "GND" V 5055 6447 50  0000 R CNN
F 2 "" H 5050 6575 50  0001 C CNN
F 3 "" H 5050 6575 50  0001 C CNN
	1    5050 6575
	0    -1   1    0   
$EndComp
Wire Wire Line
	5050 6575 4850 6575
$Comp
L Connector_Generic:Conn_01x08 J4
U 1 1 5DD50943
P 4650 6575
F 0 "J4" H 4568 5950 50  0000 C CNN
F 1 "CONN_PROG" H 4550 6050 50  0000 C CNN
F 2 "SOICbite:SOIC_clipProgSmall" H 4650 6575 50  0001 C CNN
F 3 "~" H 4650 6575 50  0001 C CNN
	1    4650 6575
	-1   0    0    1   
$EndComp
Text GLabel 5075 6475 2    50   Input ~ 0
SWDIO
Text GLabel 5075 6275 2    50   Input ~ 0
SWCLK
Wire Wire Line
	4850 6475 5075 6475
Wire Wire Line
	5075 6375 4850 6375
Wire Wire Line
	4850 6275 5075 6275
$Comp
L Connector_Generic:Conn_01x10 J3
U 1 1 5DD7D82E
P 4650 5400
F 0 "J3" H 4568 4675 50  0000 C CNN
F 1 "CONN_DISP" H 4568 4766 50  0000 C CNN
F 2 "" H 4650 5400 50  0001 C CNN
F 3 "~" H 4650 5400 50  0001 C CNN
	1    4650 5400
	-1   0    0    1   
$EndComp
Text GLabel 6250 2350 1    50   Input ~ 0
SWDIO
Text GLabel 6450 2350 1    50   Input ~ 0
nRESET
Text GLabel 6350 2350 1    50   Input ~ 0
SWCLK
Wire Wire Line
	6250 2575 6250 2350
Wire Wire Line
	6450 2350 6450 2575
Wire Wire Line
	6350 2575 6350 2350
Text GLabel 5075 6375 2    50   Input ~ 0
nRESET
Text GLabel 6850 4550 3    50   Input ~ 0
DATA
Wire Wire Line
	6850 4550 6850 4375
Text GLabel 6750 4550 3    50   Input ~ 0
EXCOMIN
Wire Wire Line
	6750 4550 6750 4375
Text GLabel 6650 4550 3    50   Input ~ 0
SCS
Wire Wire Line
	6650 4550 6650 4375
Text GLabel 6550 4550 3    50   Input ~ 0
SI
Wire Wire Line
	6550 4550 6550 4375
Text GLabel 6450 4550 3    50   Input ~ 0
SCK
Wire Wire Line
	6450 4550 6450 4375
Text GLabel 6950 4550 3    50   Input ~ 0
EXTMOD
Wire Wire Line
	6950 4375 6950 4550
Text GLabel 7050 4575 3    50   Input ~ 0
BTN1
Wire Wire Line
	7050 4575 7050 4375
Text GLabel 7150 4575 3    50   Input ~ 0
BTN2
Wire Wire Line
	7150 4575 7150 4375
Text GLabel 7250 4575 3    50   Input ~ 0
BTN3
Wire Wire Line
	7250 4575 7250 4375
Text GLabel 2900 6650 2    50   Input ~ 0
BTN3
$Comp
L power:GND #PWR0122
U 1 1 5DE64AB9
P 1475 6900
F 0 "#PWR0122" H 1475 6650 50  0001 C CNN
F 1 "GND" H 1480 6727 50  0000 C CNN
F 2 "" H 1475 6900 50  0001 C CNN
F 3 "" H 1475 6900 50  0001 C CNN
	1    1475 6900
	-1   0    0    -1  
$EndComp
$Comp
L Device:C C5
U 1 1 5DE7A249
P 2525 6850
F 0 "C5" V 2600 6950 50  0000 C CNN
F 1 "12p" V 2575 6700 50  0000 C CNN
F 2 "Capacitor_SMD:C_0603_1608Metric" H 2563 6700 50  0001 C CNN
F 3 "~" H 2525 6850 50  0001 C CNN
	1    2525 6850
	0    1    1    0   
$EndComp
$Comp
L power:+3V3 #PWR0123
U 1 1 5DE87EBB
P 3125 6475
F 0 "#PWR0123" H 3125 6325 50  0001 C CNN
F 1 "+3V3" H 3140 6648 50  0000 C CNN
F 2 "" H 3125 6475 50  0001 C CNN
F 3 "" H 3125 6475 50  0001 C CNN
	1    3125 6475
	0    1    1    0   
$EndComp
$Comp
L Device:R R3
U 1 1 5DE965F8
P 2400 6650
F 0 "R3" V 2193 6650 50  0000 C CNN
F 1 "R" V 2284 6650 50  0000 C CNN
F 2 "Resistor_SMD:R_0603_1608Metric" V 2330 6650 50  0001 C CNN
F 3 "~" H 2400 6650 50  0001 C CNN
	1    2400 6650
	0    1    1    0   
$EndComp
Wire Wire Line
	2250 6650 2125 6650
$Comp
L Switch:SW_DIP_x01 SW3
U 1 1 5DE55E5A
P 1825 6650
F 0 "SW3" H 1825 6917 50  0000 C CNN
F 1 "SW_DIP_x01" H 1825 6826 50  0000 C CNN
F 2 "digikey-footprints:Switch_Tactile_SMD_B3U-1000P" H 1825 6650 50  0001 C CNN
F 3 "~" H 1825 6650 50  0001 C CNN
	1    1825 6650
	1    0    0    -1  
$EndComp
Wire Wire Line
	1475 6650 1525 6650
Wire Wire Line
	2550 6650 2725 6650
Connection ~ 2725 6650
Wire Wire Line
	2725 6650 2900 6650
$Comp
L Device:R R6
U 1 1 5DEDF6A1
P 2925 6475
F 0 "R6" V 3132 6475 50  0000 C CNN
F 1 "R" V 3041 6475 50  0000 C CNN
F 2 "Resistor_SMD:R_0603_1608Metric" V 2855 6475 50  0001 C CNN
F 3 "~" H 2925 6475 50  0001 C CNN
	1    2925 6475
	0    -1   -1   0   
$EndComp
Wire Wire Line
	3125 6475 3075 6475
Wire Wire Line
	2725 6850 2675 6850
Wire Wire Line
	2725 6650 2725 6850
Wire Wire Line
	1475 6650 1475 6850
Wire Wire Line
	1475 6850 2375 6850
Connection ~ 1475 6850
Wire Wire Line
	1475 6850 1475 6900
Wire Wire Line
	2775 6475 2725 6475
Wire Wire Line
	2725 6475 2725 6650
Text GLabel 2900 5875 2    50   Input ~ 0
BTN2
$Comp
L power:GND #PWR0124
U 1 1 5DF3211A
P 1475 6125
F 0 "#PWR0124" H 1475 5875 50  0001 C CNN
F 1 "GND" H 1480 5952 50  0000 C CNN
F 2 "" H 1475 6125 50  0001 C CNN
F 3 "" H 1475 6125 50  0001 C CNN
	1    1475 6125
	-1   0    0    -1  
$EndComp
$Comp
L Device:C C4
U 1 1 5DF32124
P 2525 6075
F 0 "C4" V 2600 6175 50  0000 C CNN
F 1 "12p" V 2575 5925 50  0000 C CNN
F 2 "Capacitor_SMD:C_0603_1608Metric" H 2563 5925 50  0001 C CNN
F 3 "~" H 2525 6075 50  0001 C CNN
	1    2525 6075
	0    1    1    0   
$EndComp
$Comp
L power:+3V3 #PWR0125
U 1 1 5DF3212E
P 3125 5700
F 0 "#PWR0125" H 3125 5550 50  0001 C CNN
F 1 "+3V3" H 3140 5873 50  0000 C CNN
F 2 "" H 3125 5700 50  0001 C CNN
F 3 "" H 3125 5700 50  0001 C CNN
	1    3125 5700
	0    1    1    0   
$EndComp
$Comp
L Device:R R2
U 1 1 5DF32138
P 2400 5875
F 0 "R2" V 2193 5875 50  0000 C CNN
F 1 "R" V 2284 5875 50  0000 C CNN
F 2 "Resistor_SMD:R_0603_1608Metric" V 2330 5875 50  0001 C CNN
F 3 "~" H 2400 5875 50  0001 C CNN
	1    2400 5875
	0    1    1    0   
$EndComp
Wire Wire Line
	2250 5875 2125 5875
$Comp
L Switch:SW_DIP_x01 SW2
U 1 1 5DF32143
P 1825 5875
F 0 "SW2" H 1825 6142 50  0000 C CNN
F 1 "SW_DIP_x01" H 1825 6051 50  0000 C CNN
F 2 "digikey-footprints:Switch_Tactile_SMD_B3U-1000P" H 1825 5875 50  0001 C CNN
F 3 "~" H 1825 5875 50  0001 C CNN
	1    1825 5875
	1    0    0    -1  
$EndComp
Wire Wire Line
	1475 5875 1525 5875
Wire Wire Line
	2550 5875 2725 5875
Connection ~ 2725 5875
Wire Wire Line
	2725 5875 2900 5875
$Comp
L Device:R R5
U 1 1 5DF32151
P 2925 5700
F 0 "R5" V 3132 5700 50  0000 C CNN
F 1 "R" V 3041 5700 50  0000 C CNN
F 2 "Resistor_SMD:R_0603_1608Metric" V 2855 5700 50  0001 C CNN
F 3 "~" H 2925 5700 50  0001 C CNN
	1    2925 5700
	0    -1   -1   0   
$EndComp
Wire Wire Line
	3125 5700 3075 5700
Wire Wire Line
	2725 6075 2675 6075
Wire Wire Line
	2725 5875 2725 6075
Wire Wire Line
	1475 5875 1475 6075
Wire Wire Line
	1475 6075 2375 6075
Connection ~ 1475 6075
Wire Wire Line
	1475 6075 1475 6125
Wire Wire Line
	2775 5700 2725 5700
Wire Wire Line
	2725 5700 2725 5875
Text GLabel 2900 4975 2    50   Input ~ 0
BTN1
$Comp
L power:GND #PWR0126
U 1 1 5DF41223
P 1475 5225
F 0 "#PWR0126" H 1475 4975 50  0001 C CNN
F 1 "GND" H 1480 5052 50  0000 C CNN
F 2 "" H 1475 5225 50  0001 C CNN
F 3 "" H 1475 5225 50  0001 C CNN
	1    1475 5225
	-1   0    0    -1  
$EndComp
$Comp
L Device:C C3
U 1 1 5DF4122D
P 2525 5175
F 0 "C3" V 2600 5275 50  0000 C CNN
F 1 "12p" V 2575 5025 50  0000 C CNN
F 2 "Capacitor_SMD:C_0603_1608Metric" H 2563 5025 50  0001 C CNN
F 3 "~" H 2525 5175 50  0001 C CNN
	1    2525 5175
	0    1    1    0   
$EndComp
$Comp
L power:+3V3 #PWR0127
U 1 1 5DF41237
P 3125 4800
F 0 "#PWR0127" H 3125 4650 50  0001 C CNN
F 1 "+3V3" H 3140 4973 50  0000 C CNN
F 2 "" H 3125 4800 50  0001 C CNN
F 3 "" H 3125 4800 50  0001 C CNN
	1    3125 4800
	0    1    1    0   
$EndComp
$Comp
L Device:R R1
U 1 1 5DF41241
P 2400 4975
F 0 "R1" V 2193 4975 50  0000 C CNN
F 1 "R" V 2284 4975 50  0000 C CNN
F 2 "Resistor_SMD:R_0603_1608Metric" V 2330 4975 50  0001 C CNN
F 3 "~" H 2400 4975 50  0001 C CNN
	1    2400 4975
	0    1    1    0   
$EndComp
Wire Wire Line
	2250 4975 2125 4975
$Comp
L Switch:SW_DIP_x01 SW1
U 1 1 5DF4124C
P 1825 4975
F 0 "SW1" H 1825 5242 50  0000 C CNN
F 1 "SW_DIP_x01" H 1825 5151 50  0000 C CNN
F 2 "digikey-footprints:Switch_Tactile_SMD_B3U-1000P" H 1825 4975 50  0001 C CNN
F 3 "~" H 1825 4975 50  0001 C CNN
	1    1825 4975
	1    0    0    -1  
$EndComp
Wire Wire Line
	1475 4975 1525 4975
Wire Wire Line
	2550 4975 2725 4975
Connection ~ 2725 4975
Wire Wire Line
	2725 4975 2900 4975
$Comp
L Device:R R4
U 1 1 5DF4125A
P 2925 4800
F 0 "R4" V 3132 4800 50  0000 C CNN
F 1 "R" V 3041 4800 50  0000 C CNN
F 2 "Resistor_SMD:R_0603_1608Metric" V 2855 4800 50  0001 C CNN
F 3 "~" H 2925 4800 50  0001 C CNN
	1    2925 4800
	0    -1   -1   0   
$EndComp
Wire Wire Line
	3125 4800 3075 4800
Wire Wire Line
	2725 5175 2675 5175
Wire Wire Line
	2725 4975 2725 5175
Wire Wire Line
	1475 4975 1475 5175
Wire Wire Line
	1475 5175 2375 5175
Connection ~ 1475 5175
Wire Wire Line
	1475 5175 1475 5225
Wire Wire Line
	2775 4800 2725 4800
Wire Wire Line
	2725 4800 2725 4975
$EndSCHEMATC
